%YAML 1.1
%TAG !u! tag:unity3d.com,2011:
--- !u!114 &11400000
MonoBehaviour:
  m_ObjectHideFlags: 0
  m_CorrespondingSourceObject: {fileID: 0}
  m_PrefabInstance: {fileID: 0}
  m_PrefabAsset: {fileID: 0}
  m_GameObject: {fileID: 0}
  m_Enabled: 1
  m_EditorHideFlags: 0
  m_Script: {fileID: 11500000, guid: 8a3bdb2cd68f901469e7cc149151eb49, type: 3}
  m_Name: "Balan\xE7a"
  m_EditorClassIdentifier: 
  debugViews:
    m_Enabled: 1
    m_Settings:
      mode: 0
      depth:
        scale: 1
      motionVectors:
        sourceOpacity: 1
        motionImageOpacity: 0
        motionImageAmplitude: 16
        motionVectorsOpacity: 1
        motionVectorsResolution: 24
        motionVectorsAmplitude: 64
  fog:
    m_Enabled: 0
    m_Settings:
      excludeSkybox: 1
  antialiasing:
    m_Enabled: 1
    m_Settings:
      method: 0
      fxaaSettings:
        preset: 1
      taaSettings:
        jitterSpread: 0.145
        sharpen: 0.27
        stationaryBlending: 0.364
        motionBlending: 0.459
  ambientOcclusion:
    m_Enabled: 1
    m_Settings:
      intensity: 0.42
      radius: 0.82
      sampleCount: 6
      downsampling: 1
      forceForwardCompatibility: 1
      ambientOnly: 0
      highPrecision: 1
  screenSpaceReflection:
    m_Enabled: 0
    m_Settings:
      reflection:
        blendType: 0
        reflectionQuality: 0
        maxDistance: 83
        iterationCount: 300
        stepSize: 3
        widthModifier: 0.5
        reflectionBlur: 1
        reflectBackfaces: 0
      intensity:
        reflectionMultiplier: 1.252
        fadeDistance: 100
        fresnelFade: 1
        fresnelFadePower: 1
      screenEdgeMask:
        intensity: 0.03
  depthOfField:
    m_Enabled: 1
    m_Settings:
      focusDistance: 0.43
      aperture: 4.7
      focalLength: 24.86
      useCameraFov: 0
      kernelSize: 1
  motionBlur:
    m_Enabled: 0
    m_Settings:
      shutterAngle: 270
      sampleCount: 10
      frameBlending: 0
  eyeAdaptation:
    m_Enabled: 0
    m_Settings:
      lowPercent: 45
      highPercent: 95
      minLuminance: -5
      maxLuminance: 1
      keyValue: 0.25
      dynamicKeyValue: 1
      adaptationType: 0
      speedUp: 2
      speedDown: 1
      logMin: -11
      logMax: 4
  bloom:
    m_Enabled: 0
    m_Settings:
      bloom:
        intensity: 0.13
        threshold: 2.52
        softKnee: 0.044
        radius: 1
        antiFlicker: 1
      lensDirt:
        texture: {fileID: 0}
        intensity: 3
  colorGrading:
    m_Enabled: 1
    m_Settings:
      tonemapping:
        tonemapper: 1
        neutralBlackIn: -0
        neutralWhiteIn: 6.7
        neutralBlackOut: -0.032
        neutralWhiteOut: 10.9
        neutralWhiteLevel: 2
        neutralWhiteClip: 10
      basic:
        postExposure: 0.56
        temperature: 0
        tint: 0
        hueShift: 0
        saturation: 1
        contrast: 1
      channelMixer:
        red: {x: 1, y: 0, z: 0}
        green: {x: 0, y: 1, z: 0}
        blue: {x: 0, y: 0, z: 1}
        currentEditingChannel: 2
      colorWheels:
        mode: 1
        log:
          slope: {r: 1, g: 0.95580924, b: 0.8045787, a: 0}
          power: {r: 0.90960836, g: 0.759689, b: 1, a: 0}
          offset: {r: 0.8151158, g: 0.8989317, b: 1, a: 0}
        linear:
          lift: {r: 1, g: 1, b: 1, a: 0}
          gamma: {r: 1, g: 1, b: 1, a: 0}
          gain: {r: 1, g: 1, b: 1, a: 0}
      curves:
        master:
          curve:
            serializedVersion: 2
            m_Curve:
            - serializedVersion: 3
              time: 0
              value: 0
              inSlope: 0
              outSlope: 1
              tangentMode: 0
              weightedMode: 0
              inWeight: 0
              outWeight: 0
            - serializedVersion: 3
              time: 1
              value: 1
              inSlope: 1
              outSlope: 0
              tangentMode: 0
              weightedMode: 0
              inWeight: 0
              outWeight: 0
            m_PreInfinity: 2
            m_PostInfinity: 2
            m_RotationOrder: 4
          m_Loop: 0
          m_ZeroValue: 0
          m_Range: 1
        red:
          curve:
            serializedVersion: 2
            m_Curve:
            - serializedVersion: 3
              time: 0
              value: 0
              inSlope: 0
              outSlope: 1
              tangentMode: 0
              weightedMode: 0
              inWeight: 0
              outWeight: 0
            - serializedVersion: 3
              time: 1
              value: 1
              inSlope: 1
              outSlope: 0
              tangentMode: 0
              weightedMode: 0
              inWeight: 0
              outWeight: 0
            m_PreInfinity: 2
            m_PostInfinity: 2
            m_RotationOrder: 4
          m_Loop: 0
          m_ZeroValue: 0
          m_Range: 1
        green:
          curve:
            serializedVersion: 2
            m_Curve:
            - serializedVersion: 3
              time: 0
              value: 0
              inSlope: 1
              outSlope: 1
              tangentMode: 0
              weightedMode: 0
              inWeight: 0
              outWeight: 0
            - serializedVersion: 3
              time: 1
              value: 1
              inSlope: 1
              outSlope: 1
              tangentMode: 0
              weightedMode: 0
              inWeight: 0
              outWeight: 0
            m_PreInfinity: 2
            m_PostInfinity: 2
            m_RotationOrder: 4
          m_Loop: 0
          m_ZeroValue: 0
          m_Range: 1
        blue:
          curve:
            serializedVersion: 2
            m_Curve:
            - serializedVersion: 3
              time: 0
              value: 0
              inSlope: 0
              outSlope: 1
              tangentMode: 0
              weightedMode: 0
              inWeight: 0
              outWeight: 0
            - serializedVersion: 3
              time: 0.4430693
              value: 0.46875
              inSlope: 1.1178399
              outSlope: 1.1178399
              tangentMode: 0
              weightedMode: 0
              inWeight: 0
              outWeight: 0
            - serializedVersion: 3
              time: 1
              value: 1
              inSlope: 1
              outSlope: 0
              tangentMode: 0
              weightedMode: 0
              inWeight: 0
              outWeight: 0
            m_PreInfinity: 2
            m_PostInfinity: 2
            m_RotationOrder: 4
          m_Loop: 0
          m_ZeroValue: 0
          m_Range: 1
        hueVShue:
          curve:
            serializedVersion: 2
            m_Curve: []
            m_PreInfinity: 2
            m_PostInfinity: 2
            m_RotationOrder: 4
          m_Loop: 1
          m_ZeroValue: 0.5
          m_Range: 1
        hueVSsat:
          curve:
            serializedVersion: 2
            m_Curve: []
            m_PreInfinity: 2
            m_PostInfinity: 2
            m_RotationOrder: 4
          m_Loop: 1
          m_ZeroValue: 0.5
          m_Range: 1
        satVSsat:
          curve:
            serializedVersion: 2
            m_Curve: []
            m_PreInfinity: 2
            m_PostInfinity: 2
            m_RotationOrder: 4
          m_Loop: 0
          m_ZeroValue: 0.5
          m_Range: 1
        lumVSsat:
          curve:
            serializedVersion: 2
            m_Curve: []
            m_PreInfinity: 2
            m_PostInfinity: 2
            m_RotationOrder: 4
          m_Loop: 0
          m_ZeroValue: 0.5
          m_Range: 1
        e_CurrentEditingCurve: 0
        e_CurveY: 1
        e_CurveR: 1
        e_CurveG: 0
        e_CurveB: 1
  userLut:
    m_Enabled: 0
    m_Settings:
      lut: {fileID: 2800000, guid: 4f98e9c96c8a48541b5eb704e92d99b8, type: 3}
      contribution: 1
  chromaticAberration:
    m_Enabled: 0
    m_Settings:
      spectralTexture: {fileID: 2800000, guid: 318cbcd94840f1d48aca4d86234dc2e7, type: 3}
      intensity: 0
  grain:
    m_Enabled: 0
    m_Settings:
      colored: 1
      intensity: 0.267
      size: 1
      luminanceContribution: 0.8
  vignette:
    m_Enabled: 1
    m_Settings:
      mode: 0
      color: {r: 0, g: 0, b: 0, a: 1}
      center: {x: 0.5, y: 0.5}
      intensity: 0.309
      smoothness: 0.38
      roundness: 0.974
      mask: {fileID: 0}
      opacity: 1
      rounded: 0
  dithering:
    m_Enabled: 0
  monitors:
    currentMonitorID: 0
    refreshOnPlay: 0
    histogramMode: 3
    waveformExposure: 0.12
    waveformY: 0
    waveformR: 1
    waveformG: 1
    waveformB: 1
    paradeExposure: 0.12
    vectorscopeExposure: 0.12
    vectorscopeShowBackground: 1
