%YAML 1.1
%TAG !u! tag:unity3d.com,2011:
--- !u!114 &11400000
MonoBehaviour:
  m_ObjectHideFlags: 0
  m_CorrespondingSourceObject: {fileID: 0}
  m_PrefabInstance: {fileID: 0}
  m_PrefabAsset: {fileID: 0}
  m_GameObject: {fileID: 0}
  m_Enabled: 1
  m_EditorHideFlags: 0
  m_Script: {fileID: 11500000, guid: 1396a7dd18391194794f4e2ce52062d5, type: 3}
  m_Name: DanzaFrancesaF2
  m_EditorClassIdentifier: 
  musicName: Danza Francesa
  Width: 4300
  audioClip: {fileID: 8300000, guid: c67614641fd9fdd48a2ddb13aff415e1, type: 3}
  acompanhamento: {fileID: 8300000, guid: a80fe7d19126fc9488b03544bcfd5b71, type: 3}
  solo: {fileID: 8300000, guid: 54f750b42e1d53a4386fce0cc40f5927, type: 3}
  audioClipLento: {fileID: 8300000, guid: 04e684d98da7d024ca3e4c9a9eb7275c, type: 3}
  notes:
  - {fileID: 11400000, guid: bebc6e9748d6aa44086539b34264167c, type: 2}
  - {fileID: 11400000, guid: f988f7254d813914a940e00d2a11126e, type: 2}
  - {fileID: 11400000, guid: 19d2de8e7f4ce0d429b4c67bdf145337, type: 2}
  - {fileID: 11400000, guid: 66c5761960dc64f46b78a6642b25935c, type: 2}
  - {fileID: 11400000, guid: 0b2d7bf2f052d864cadc0b84403fadb1, type: 2}
  - {fileID: 11400000, guid: f70d44ecc5da5dd4dbb7d45aaacc9510, type: 2}
  - {fileID: 11400000, guid: 83f8ae2eb8ea4244797a7ec56390dc9a, type: 2}
  - {fileID: 11400000, guid: a7248bf6873b4ff49a9aeb025f52ff21, type: 2}
  - {fileID: 11400000, guid: 1b6afdaade34b8346bb7d546e4adc43d, type: 2}
  - {fileID: 11400000, guid: 675d559fb63782b4a850e85d91af01a0, type: 2}
  - {fileID: 11400000, guid: 3669a08448ca239469a5e5383ce543c7, type: 2}
  - {fileID: 11400000, guid: 934ba6aa250f5be40b83609549ca95dc, type: 2}
  - {fileID: 11400000, guid: 2cf188ea2456cb341b446554fa928ce0, type: 2}
  - {fileID: 11400000, guid: fabeee77ae3d2bd4dbdc97de36ea2a49, type: 2}
  - {fileID: 11400000, guid: 05e87654bea343b44b47e44780866282, type: 2}
  - {fileID: 11400000, guid: 055a3b3f3876f80408f769e664604d07, type: 2}
  - {fileID: 11400000, guid: 540ff2cd220b33a43940280504aede4e, type: 2}
  - {fileID: 11400000, guid: 3b1ae16fe1fe8534aba513758fd6c4e1, type: 2}
  - {fileID: 11400000, guid: 2b8892f185cb73d4fb16e4e5f65034b2, type: 2}
  - {fileID: 11400000, guid: 6f4914e792c60104e8299d9130170af5, type: 2}
  - {fileID: 11400000, guid: 38740675da681d644873b56e1f3fc5d7, type: 2}
  - {fileID: 11400000, guid: 91e909c8f40abf44191a187366abbc84, type: 2}
  - {fileID: 11400000, guid: 5c60e4ae1a8297f41ada918fd52c0aba, type: 2}
  - {fileID: 11400000, guid: a9bad173fc57c564b9a1ca134c12d88b, type: 2}
  - {fileID: 11400000, guid: 5fbd1c07b10f8f544951358d85a0d046, type: 2}
  - {fileID: 11400000, guid: 86f089bd0da26924f9409872fa9005d2, type: 2}
  - {fileID: 11400000, guid: 75d7d64038d92c549b28f5a9879b4d21, type: 2}
  - {fileID: 11400000, guid: 68b1ca54f35245f4dbfd2984b5f3a229, type: 2}
  - {fileID: 11400000, guid: 93d4af92a3cd2364fa4c81ba6256f7bd, type: 2}
  - {fileID: 11400000, guid: ea9cb3c5a1ed95a45808936e158dfca4, type: 2}
  partiture: {fileID: 21300000, guid: 8c8a4099799b32b4c9dd8bf21ef7e632, type: 3}
  initialPos: 390
  bpm: 1.8333
  useAudioClip: 0
